…
            cont = cont + 1
            dff$flag[k] <- paste("heterogeneo", cont)}
        }
      }
      cont = 0
    }
    if(i == 1 & j == 1){
      dff_final <- dff
    }else{
      dff_final <- rbind(dff_final, dff)
    }
  }
}
dff_final
#> # A tibble: 1,897 x 14
#>    conservation_un~ species station date       time     mestre   day month  year
#>    <chr>            <chr>     <dbl> <date>     <time>   <lgl>  <dbl> <dbl> <dbl>
#>  1 Bebedouro        Cfamil~     183 2014-10-20 11:14:46 FALSE     20    10  2014
#>  2 Bebedouro        Cfamil~     183 2014-11-03 10:56:26 FALSE      3    11  2014
#>  3 Bebedouro        Dasypus     183 2014-11-05 00:02:29 FALSE      5    11  2014
#>  4 Bebedouro        Cfamil~     183 2014-12-03 12:02:55 FALSE      3    12  2014
#>  5 Bebedouro        Dasypus     183 2014-12-04 04:00:20 FALSE      4    12  2014
#>  6 Bebedouro        Dasypus     183 2014-12-07 03:33:39 FALSE      7    12  2014
#>  7 Bebedouro        Dasypus     183 2014-12-11 21:10:36 FALSE     11    12  2014
#>  8 Bebedouro        Dasypus     184 2014-10-17 21:48:32 FALSE     17    10  2014
#>  9 Bebedouro        Dasypus     186 2014-10-17 22:26:24 FALSE     17    10  2014
#> 10 Bebedouro        Dasypus     186 2014-10-18 00:12:24 FALSE     18    10  2014
#> # ... with 1,887 more rows, and 5 more variables: m_e <lgl>, date_time <dttm>,
#> #   type <chr>, flag <chr>, diff_time <dbl>
…
